proof-of-concept
…
theta_df = theta |> 
    as_tibble(rownames = 'doc', 
              .name_repair = tmfast:::make_colnames) |> 
    pivot_longer(cols = -doc, 
                 names_to = 'topic', 
                 values_to = 'theta')

theta_df

# A tibble: 20,000 × 3
   doc   topic     theta
   <chr> <chr>     <dbl>
 1 A-01  V01   1.00e+  0
 2 A-01  V02   5.14e-121
 3 A-01  V03   1.41e- 77
 4 A-01  V04   5.47e- 23
 5 A-01  V05   4.78e-194
 6 A-01  V06   1.00e- 21
 7 A-01  V07   4.66e-  9
 8 A-01  V08   3.96e- 48
 9 A-01  V09   4.56e-169
10 A-01  V10   1.57e-143
# … with 19,990 more rows
…
