Race Science in Mainstream Psychology, 1960-2010
…
theta_df = theta |> 
    as_tibble(rownames = 'doc', 
              .name_repair = tmfast:::make_colnames) |> 
    pivot_longer(cols = -doc, 
                 names_to = 'topic', 
                 values_to = 'theta')

theta_df

# A tibble: 30,000 × 3
   doc   topic     theta
   <chr> <chr>     <dbl>
 1 A-01  V01   1.00e+  0
 2 A-01  V02   5.14e-121
 3 A-01  V03   1.41e- 77
 4 A-01  V04   5.47e- 23
 5 A-01  V05   4.78e-194
 6 A-01  V06   1.00e- 21
 7 A-01  V07   4.66e-  9
 8 A-01  V08   3.96e- 48
 9 A-01  V09   4.56e-169
10 A-01  V10   1.57e-143
# ℹ 29,990 more rows
…
## Draw corpus ----
draw_corpus_cached = memoise(draw_corpus, 
                              cache = cachem::cache_disk('draw_corpus_cache'))
set.seed(2024-03-25)  ## NB draw_corpus() is non-deterministic! 
tic()
corpus = draw_corpus_cached(doc_len, theta, phi) |> 
    mutate(doc = rownames(theta)[doc], 
           n = log1p(n))
toc()

0.03 sec elapsed

corpus

# A tibble: 338,585 × 3
   doc    word     n
   <chr> <int> <dbl>
 1 A-01     17 0.693
 2 A-01     18 1.10 
 3 A-01     19 2.20 
 4 A-01     28 0.693
 5 A-01     29 1.39 
 6 A-01     40 2.08 
 7 A-01     51 1.39 
 8 A-01     53 0.693
 9 A-01     54 0.693
10 A-01     76 2.20 
# ℹ 338,575 more rows
…
